TOPONYMES,AGEN,ALBI,AMIENS,ANGERS,ANGOULEME,ANNECY,AURILLAC,AUXERRE,AVIGNON,BESANCON,BEZIERS,BIARRITZ,BORDEAUX,BOURGES,BREST,CAEN,CALAIS,CHAUMONT,CHERBOURG,CLERMONT,DIJON,GAP,GRENOBLE,LA-ROCHELLE,LE-HAVRE,LE-MANS,LILLE,LIMOGES,LORIENT,LYON,MARSEILLE,MENDE,METZ,MONTPELLIER,MOULINS,MULHOUSE,NANCY,NANTES,NICE,ORLEANS,PARIS,PAU,PERPIGNAN,POITIERS,REIMS,RENNES,ROUEN,ST-MALO,STRASBOURG,TOULON,TOULOUSE,TOURS,TROYES,TULLE,VALENCE,VERDUN
AGEN,0,85,194,161,51,230,257,263,120,230,78,109,30,257,298,239,244,293,314,306,234,300,230,135,239,164,214,220,280,175,160,291,244,90,316,289,244,190,250,172,154,114,90,72,199,190,194,243,264,195,30,98,252,215,150,322
ALBI,85,0,266,233,120,258,183,348,232,258,103,197,118,329,370,311,131,352,386,378,283,412,258,207,311,249,286,262,352,203,188,308,316,118,344,303,316,262,278,279,226,203,118,144,271,262,266,315,323,223,55,170,324,221,262,394
AMIENS,194,266,0,117,143,190,328,162,200,135,256,245,166,174,234,125,50,139,200,192,120,320,190,185,45,94,74,161,216,150,220,384,130,220,185,175,130,146,280,93,40,250,260,122,95,126,80,179,150,253,208,96,138,269,170,208
ANGERS,161,233,117,0,180,227,365,199,281,172,215,212,133,156,163,146,167,216,224,229,157,357,227,144,162,23,137,225,145,187,257,421,167,235,217,212,167,29,317,130,77,217,235,89,122,55,117,108,187,292,175,55,175,246,207,245
ANGOULEME,51,120,143,180,0,281,256,112,171,198,113,100,23,170,247,288,193,242,263,338,183,351,253,84,188,111,163,50,229,213,211,342,193,141,239,238,193,163,301,117,103,176,141,21,148,143,143,196,213,246,81,47,191,178,201,271
ANNECY,230,258,190,227,281,0,410,231,150,110,176,339,260,257,344,235,240,207,310,280,120,172,30,295,235,204,210,271,326,55,140,341,217,140,196,145,230,256,205,203,150,345,180,232,195,236,190,289,175,175,200,206,263,398,120,318
AURILLAC,257,183,328,365,256,410,0,410,371,383,316,366,283,265,482,373,375,436,448,145,368,551,402,359,373,386,348,165,464,323,357,184,378,287,206,445,378,394,447,235,288,365,287,296,333,374,328,427,398,392,211,322,386,127,377,456
AUXERRE,263,348,162,199,112,231,410,0,199,126,325,327,248,251,316,207,199,189,282,274,99,349,231,267,207,176,182,243,298,176,261,462,212,261,256,161,212,228,326,175,109,332,301,204,167,208,162,261,216,296,290,178,180,351,199,272
AVIGNON,120,232,200,281,171,150,371,199,0,120,66,229,190,291,356,245,250,217,320,222,130,180,126,239,245,214,220,290,336,65,20,190,227,30,176,155,240,281,85,213,160,235,60,190,205,246,200,299,185,55,90,206,278,364,30,367
BESANCON,230,258,135,172,198,110,383,126,120,0,186,300,221,229,289,180,185,102,255,212,15,240,110,240,180,149,155,216,271,55,140,341,132,140,161,20,145,201,205,148,95,305,180,177,140,181,135,234,90,175,200,151,163,324,90,263
BEZIERS,78,103,256,215,113,176,316,325,66,186,0,187,88,209,360,301,309,273,376,278,186,246,176,197,301,242,276,250,364,121,96,218,293,36,262,221,296,300,196,269,216,193,49,148,261,274,256,327,241,131,48,160,304,262,96,384
BIARRITZ,109,197,245,212,100,339,366,327,229,300,187,0,79,308,349,290,293,344,365,357,285,409,339,186,290,211,265,225,331,284,269,400,295,199,302,340,295,241,359,223,205,97,199,123,250,241,245,294,315,304,139,149,303,249,259,373
BORDEAUX,30,118,166,133,23,260,283,248,190,221,88,79,0,229,270,211,216,265,286,278,206,370,260,107,211,134,186,135,252,205,190,321,216,120,223,261,216,162,280,144,126,84,120,44,171,162,166,215,236,225,60,70,224,170,220,294
BOURGES,257,329,174,156,170,257,265,251,291,229,209,308,229,0,328,219,221,314,294,105,214,427,257,248,209,142,193,126,310,202,287,297,224,287,60,264,224,199,352,77,124,313,327,125,179,220,174,273,244,322,271,90,232,202,257,294
BREST,298,370,234,163,247,344,482,316,356,289,360,349,270,328,0,279,284,333,354,346,274,474,344,289,279,140,254,315,123,304,374,538,284,372,339,329,284,192,434,247,194,354,372,226,239,108,234,161,304,409,312,200,292,425,324,362
CAEN,239,311,125,146,288,235,373,207,245,180,301,290,211,219,279,0,250,224,75,237,165,365,235,230,170,103,145,206,261,195,265,429,175,265,230,270,175,181,325,138,85,295,305,167,130,171,117,167,195,300,253,141,183,314,215,253
CALAIS,244,131,50,167,193,240,375,199,250,185,309,293,216,221,284,250,0,229,250,242,170,370,240,235,175,144,41,211,266,220,270,380,180,270,235,225,180,196,330,143,90,300,300,172,135,176,130,229,200,305,258,146,178,319,220,258
CHAUMONT,293,352,139,216,242,207,436,189,217,102,273,344,265,314,333,224,229,0,299,312,87,337,207,284,224,193,199,260,315,203,319,438,194,237,268,144,146,245,302,192,139,349,277,221,121,225,179,278,200,354,297,195,48,368,187,179
CHERBOURG,314,386,200,224,263,310,448,282,320,255,376,365,286,294,354,75,250,299,0,312,240,440,310,305,245,188,220,281,286,270,340,504,250,340,305,191,198,172,400,213,160,370,380,242,205,191,198,172,270,375,328,216,258,389,290,328
CLERMONT,306,378,192,229,338,280,145,274,222,212,278,357,278,105,346,237,242,312,312,0,222,342,212,297,237,272,212,219,328,157,242,192,242,242,59,247,242,258,307,205,152,362,282,234,197,238,192,291,262,277,302,208,250,186,192,320
DIJON,234,283,120,157,183,120,368,99,130,15,186,285,206,214,274,165,170,87,240,222,0,250,120,225,165,134,140,201,256,65,150,351,147,150,146,50,135,186,215,133,80,290,190,162,125,166,120,219,105,185,210,136,133,309,100,248
GAP,300,412,320,357,351,172,551,349,180,240,246,409,370,427,474,365,370,337,440,342,250,0,142,419,365,334,340,470,456,185,150,407,407,210,326,275,397,360,324,333,280,405,240,370,325,366,320,419,305,185,270,336,398,528,150,543
GRENOBLE,230,258,190,227,253,30,402,231,126,110,176,339,260,257,344,235,240,207,310,212,120,142,0,295,235,204,210,271,326,55,140,298,217,140,196,145,230,256,205,203,150,345,180,232,195,236,190,289,175,175,200,206,263,379,60,318
LA-ROCHELLE,135,207,185,144,84,295,359,267,239,240,197,186,107,248,289,230,235,284,305,297,225,419,295,0,230,153,205,199,231,255,279,410,235,209,242,280,235,111,369,163,145,191,209,63,190,181,185,234,255,314,149,89,243,262,269,313
LE-HAVRE,239,311,45,162,188,235,373,207,245,180,301,290,211,209,279,170,175,224,245,237,165,365,235,230,0,139,145,206,261,195,365,384,175,265,230,220,175,191,325,138,85,295,305,167,130,171,45,224,195,300,253,141,173,314,215,253
LE-MANS,164,249,94,23,111,204,386,176,214,149,242,211,134,142,140,103,144,193,188,272,134,334,204,153,139,0,114,175,122,164,234,398,144,234,199,189,144,52,294,129,52,218,254,90,99,32,94,85,164,269,194,64,142,289,184,222
LILLE,214,286,74,137,163,210,348,182,220,155,276,265,186,193,254,145,41,199,220,212,140,340,210,205,145,114,0,181,236,170,240,404,150,240,205,195,150,166,300,113,60,270,280,142,105,146,100,199,170,275,240,157,158,289,194,228
LIMOGES,220,262,161,225,50,271,165,243,290,216,250,225,135,126,315,206,211,260,281,219,201,470,271,199,206,175,181,0,297,231,301,353,211,262,195,256,211,227,361,68,121,230,262,126,166,207,161,260,231,336,202,162,219,108,251,289
LORIENT,280,352,216,145,229,326,464,298,336,271,364,331,252,310,123,261,266,315,286,328,256,456,326,231,261,122,236,297,0,286,356,520,266,354,321,311,266,116,416,229,176,336,354,208,221,88,216,88,286,391,294,182,274,411,306,344
LYON,175,203,150,187,213,55,323,176,65,55,121,284,205,202,304,195,220,203,270,157,65,185,55,255,195,164,170,231,286,0,85,207,162,85,141,90,175,216,150,163,110,290,125,192,155,196,150,249,120,120,145,166,208,343,35,278
MARSEILLE,160,188,220,257,211,140,357,261,20,140,96,269,190,287,374,265,270,319,340,242,150,150,140,279,365,234,240,301,356,85,0,253,247,70,226,175,260,286,90,233,180,275,110,216,225,266,220,319,205,35,130,236,278,396,50,348
MENDE,291,308,384,421,342,341,184,462,190,341,218,400,321,297,538,429,380,438,504,192,351,407,298,410,384,398,404,353,520,207,253,0,434,197,251,382,434,450,361,397,330,406,241,347,389,430,384,483,406,299,261,373,442,313,257,512
METZ,244,316,130,167,193,217,378,212,227,132,293,295,216,224,284,175,180,194,250,242,147,407,217,235,175,144,150,211,266,162,247,434,0,247,293,87,35,196,312,143,90,300,287,172,45,176,130,229,42,282,258,146,188,319,197,99
MONTPELLIER,90,118,220,235,141,140,287,261,30,140,36,199,120,287,372,265,270,237,340,242,150,210,140,209,265,234,240,262,354,85,70,197,247,0,226,185,260,264,160,233,180,205,40,146,225,264,220,317,205,105,60,172,278,305,50,348
MOULINS,316,344,185,217,239,196,206,256,176,161,262,302,223,60,339,230,235,268,305,59,146,326,196,242,230,199,205,195,321,141,226,251,293,226,0,196,286,252,291,148,145,307,266,195,190,293,185,284,251,261,286,153,255,245,176,343
MULHOUSE,289,303,175,212,238,145,445,161,155,20,221,340,261,264,329,270,225,144,295,247,50,275,145,280,220,189,195,256,311,90,175,382,87,185,196,0,100,241,240,188,135,345,225,217,110,221,175,274,45,210,245,191,196,364,125,227
NANCY,244,316,130,167,193,230,378,212,240,145,296,295,216,224,284,175,180,146,250,242,135,397,230,235,175,144,150,211,266,175,260,434,35,260,286,100,0,196,325,143,90,300,300,172,45,176,130,229,55,295,258,146,188,319,210,89
NANTES,190,262,146,29,163,256,394,228,281,201,300,241,162,199,192,181,196,245,256,258,186,360,256,111,191,52,166,227,116,216,286,450,196,264,252,241,196,0,346,159,106,246,264,118,151,80,146,137,216,321,204,92,204,352,236,274
NICE,250,278,280,317,301,205,447,326,85,205,196,359,280,352,434,325,330,302,400,307,215,324,205,369,325,294,300,361,416,150,90,361,312,160,291,240,325,346,0,293,240,365,220,306,285,326,280,379,270,100,220,296,338,444,115,408
ORLEANS,172,279,93,130,117,203,235,175,213,148,269,223,144,77,247,138,143,192,213,205,133,333,203,163,138,129,113,68,229,163,233,397,143,233,148,188,143,159,293,0,53,228,330,100,98,139,93,192,163,268,221,70,151,176,183,221
PARIS,154,226,40,77,103,150,288,109,160,95,216,205,126,124,194,85,90,139,160,152,80,280,150,145,85,52,60,121,176,110,180,330,90,180,145,135,90,106,240,53,0,210,220,82,45,86,40,139,110,215,168,56,88,229,130,168
PAU,114,203,250,217,176,345,365,332,235,305,193,97,84,313,354,295,300,349,370,362,290,405,345,191,295,218,270,230,336,290,275,406,300,205,307,345,300,246,365,228,210,0,205,128,255,246,250,299,320,310,145,154,298,308,255,378
PERPIGNAN,90,118,260,235,141,180,287,301,60,180,49,199,120,327,372,305,300,277,380,282,190,240,180,209,305,254,280,262,354,125,110,241,287,40,266,225,300,264,220,330,220,205,0,146,265,264,260,317,245,145,60,172,318,328,90,388
POITIERS,72,144,122,89,21,232,296,204,190,177,148,123,44,125,226,167,172,221,242,234,162,370,232,63,167,90,142,126,208,192,216,347,172,146,195,217,172,118,306,100,82,128,146,0,127,118,122,171,192,251,86,26,180,199,212,250
REIMS,199,271,95,122,148,195,333,167,205,140,261,250,171,179,239,130,135,121,205,197,125,325,195,190,130,99,105,166,221,155,225,389,45,225,190,110,45,151,285,98,45,255,265,127,0,131,85,184,65,260,213,101,143,274,175,123
RENNES,190,262,126,55,143,236,374,208,246,181,274,241,162,220,108,171,176,225,191,238,166,366,236,181,171,32,146,207,88,196,266,430,176,264,293,221,176,80,326,139,86,246,264,118,131,0,126,53,196,301,204,92,184,321,216,254
ROUEN,194,266,80,117,143,190,328,162,200,135,256,245,166,174,234,117,130,179,198,192,120,320,190,185,45,94,100,161,216,150,220,384,130,220,185,175,130,146,280,93,40,250,260,122,85,126,0,179,150,255,208,96,138,269,170,208
ST-MALO,243,315,179,108,196,289,427,261,299,234,327,294,215,273,161,167,229,278,172,291,219,419,289,234,224,85,199,260,88,249,319,483,229,317,284,274,229,137,379,192,139,299,317,171,184,53,179,0,249,354,257,145,237,374,269,307
STRASBOURG,264,323,150,187,213,175,398,216,185,90,241,315,236,244,304,195,200,200,270,262,105,305,175,255,195,164,170,231,286,120,205,406,42,205,251,45,55,216,270,163,110,320,245,192,65,196,150,249,0,240,265,166,208,339,155,182
TOULON,195,223,253,292,246,175,392,296,55,175,131,304,225,322,409,300,305,354,375,277,185,185,175,314,300,269,275,336,391,120,35,299,282,105,261,210,295,321,100,268,215,310,145,251,260,301,255,354,240,0,165,271,313,431,85,383
TOULOUSE,30,55,208,175,81,200,211,290,90,200,48,139,60,271,312,253,258,297,328,302,210,270,200,149,253,194,240,202,294,145,130,261,258,60,286,245,258,204,220,221,168,145,60,86,213,204,208,257,265,165,0,112,266,168,110,336
TOURS,98,170,96,55,47,206,322,178,206,151,160,149,70,90,200,141,146,195,216,208,136,336,206,89,141,64,157,162,182,166,236,373,146,172,153,191,146,92,296,70,56,154,172,26,101,92,96,145,166,271,112,0,154,225,186,224
TROYES,252,324,138,175,191,263,386,180,278,163,304,303,224,232,292,183,178,48,258,250,133,398,263,243,173,142,158,219,274,208,278,442,188,278,255,196,188,204,338,151,88,298,318,180,143,184,138,237,208,313,266,154,0,317,248,266
TULLE,215,221,269,246,178,398,127,351,364,324,262,249,170,202,425,314,319,368,389,186,309,528,379,262,314,289,289,108,411,343,396,313,319,305,245,364,319,352,444,176,229,308,328,199,274,321,269,374,339,431,168,225,317,0,378,397
VALENCE,150,262,170,207,201,120,377,199,30,90,96,259,220,257,324,215,220,187,290,192,100,150,60,269,215,184,194,251,306,35,50,257,197,50,176,125,210,236,115,183,130,255,90,212,175,216,170,269,155,85,110,186,248,378,0,313
VERDUN,322,394,208,245,271,318,456,272,367,263,384,373,294,294,362,253,258,179,328,320,248,543,318,313,253,222,228,289,344,278,348,512,99,348,343,227,89,274,408,221,168,378,388,250,123,254,208,307,182,383,336,224,266,397,313,0
