TOPONYMES,AGEN,ALBI,AMIENS,ANGERS,ANGOULEME,ANNECY,AURILLAC,AUXERRE,AVIGNON,BESANCON,BEZIERS,BIARRITZ,BORDEAUX,BOURGES,BREST,CAEN,CALAIS,CHAUMONT,CHERBOURG,CLERMONT,DIJON,GAP,GRENOBLE,LA-ROCHELLE,LE-HAVRE,LE-MANS,LILLE,LIMOGES,LORIENT,LYON,MARSEILLE,MENDE,METZ,MONTPELLIER,MOULINS,MULHOUSE,NANCY,NANTES,NICE,ORLEANS,PARIS,PAU,PERPIGNAN,POITIERS,REIMS,RENNES,ROUEN,ST-MALO,STRASBOURG,TOULON,TOULOUSE,TOURS,TROYES,TULLE,VALENCE,VERDUN
AGEN,0,117,391,306,136,496,281,428,274,485,162,182,66,350,541,406,421,453,478,394,425,513,406,216,406,316,377,199,455,337,283,427,493,194,428,611,472,328,444,307,255,191,202,183,404,392,357,467,559,334,62,241,400,197,305,541
ALBI,128,0,541,440,274,488,213,525,277,499,169,317,188,425,676,540,588,585,613,349,418,513,405,356,541,451,512,254,601,318,286,225,628,197,444,601,607,474,447,411,386,224,209,323,539,527,492,602,654,337,46,373,568,238,307,719
AMIENS,396,541,0,207,256,345,468,214,260,262,342,424,319,215,365,198,107,246,284,299,208,447,283,304,140,171,75,286,337,210,281,494,281,300,249,361,260,248,452,172,69,450,390,210,145,241,80,310,334,335,462,190,184,379,236,312
ANGERS,326,465,209,0,159,368,412,238,288,301,397,345,221,146,254,159,228,287,252,285,233,453,301,158,236,37,197,246,154,221,317,485,308,342,208,405,316,37,464,104,91,343,446,114,238,123,188,199,397,374,390,54,225,346,268,349
ANGOULEME,123,243,268,155,0,424,319,311,342,360,300,170,57,189,419,257,301,339,353,331,283,550,357,119,300,154,236,102,311,279,367,511,365,334,253,471,348,196,539,161,130,183,362,43,302,263,244,341,426,418,188,94,279,191,322,421
ANNECY,465,496,328,345,395,0,511,262,201,221,283,572,454,350,514,356,374,355,428,309,238,264,86,434,384,293,304,434,482,109,235,426,447,235,298,322,415,386,407,302,209,549,336,344,364,375,329,454,388,292,396,322,318,511,143,517
AURILLAC,284,185,456,411,304,525,0,476,408,468,298,409,247,292,699,515,513,549,587,140,382,568,455,419,513,419,450,158,650,326,433,211,567,337,212,627,576,452,588,294,343,352,339,314,490,517,460,599,666,484,198,334,496,131,389,630
AUXERRE,408,528,230,243,283,362,496,0,201,200,329,459,342,275,417,253,260,216,311,344,108,405,229,340,255,204,223,317,381,120,234,463,310,269,285,333,269,284,391,203,108,469,407,254,246,286,204,359,386,282,473,237,141,410,164,406
AVIGNON,287,276,262,298,340,201,416,249,0,224,101,474,334,290,472,296,314,258,368,249,163,244,111,401,306,250,257,365,432,63,29,217,352,44,232,325,311,333,174,247,158,379,161,298,288,331,254,397,391,78,203,269,302,431,31,425
BESANCON,459,532,270,294,333,267,479,189,227,0,324,489,376,285,468,298,276,157,370,319,47,375,256,382,306,255,215,373,407,134,256,472,244,281,249,87,210,335,424,246,151,506,383,287,291,337,255,410,140,314,420,255,223,466,195,346
BEZIERS,165,178,349,394,332,306,342,304,100,326,0,353,233,411,535,432,395,421,504,339,245,302,215,415,405,342,333,315,507,145,132,230,468,35,339,428,441,435,300,343,248,246,45,379,398,411,350,480,481,192,93,349,360,288,114,538
BIARRITZ,179,324,426,351,162,573,461,452,434,508,343,0,104,386,570,453,445,488,527,496,447,660,541,250,463,368,415,269,489,454,455,612,519,364,474,623,510,362,610,336,289,86,349,207,448,423,408,491,584,506,224,270,436,313,471,609
BORDEAUX,63,183,291,213,53,456,256,339,312,387,230,102,0,250,445,316,331,364,398,364,321,547,399,122,331,210,285,123,361,337,333,496,403,242,314,503,397,234,488,221,177,116,275,97,327,308,282,378,471,384,122,152,309,166,349,453
BOURGES,325,437,235,154,191,337,293,251,306,289,385,376,248,0,414,258,237,284,331,133,197,490,313,227,277,158,206,118,327,200,313,321,310,326,60,405,317,198,500,58,108,393,419,135,251,254,224,342,398,385,305,86,243,204,271,375
BREST,531,672,377,260,384,528,662,453,481,481,596,575,450,401,0,323,399,458,355,546,412,629,481,375,414,204,360,474,117,407,479,726,489,540,473,584,498,236,638,357,250,572,661,338,421,120,361,204,572,530,580,297,406,573,432,554
CAEN,409,554,206,149,270,389,485,250,300,318,409,451,322,279,321,0,238,297,56,389,245,473,313,320,179,100,194,322,293,249,339,573,336,363,323,428,313,190,482,220,106,442,463,224,260,179,106,166,388,396,466,168,242,441,276,367
CALAIS,415,542,104,240,264,357,477,234,301,285,375,445,324,257,397,231,0,284,302,347,229,492,347,312,234,181,29,314,371,233,317,528,280,315,286,412,274,281,479,186,85,479,452,219,208,257,178,331,349,368,439,194,222,445,261,308
CHAUMONT,453,576,241,264,338,334,519,188,261,151,382,492,382,281,437,303,261,0,373,353,80,472,297,357,305,233,227,371,409,182,285,506,194,307,253,131,168,305,452,232,133,508,464,267,126,303,252,382,191,341,473,250,43,475,224,201
CHERBOURG,477,657,311,233,330,463,543,321,368,393,467,525,390,352,353,56,338,371,0,455,316,546,384,378,287,170,254,380,325,320,402,659,416,421,388,499,387,274,555,291,165,510,521,285,335,197,194,216,462,454,541,256,316,531,344,489
CLERMONT,424,348,312,291,331,327,132,297,226,292,347,487,346,136,537,358,329,372,426,0,226,389,257,376,368,292,294,206,468,152,259,170,424,282,54,426,420,335,423,202,193,480,420,281,338,366,315,432,494,313,350,228,341,172,210,453
DIJON,394,476,203,229,269,228,400,102,162,48,244,430,317,194,403,242,217,79,314,235,0,360,202,322,249,190,162,300,352,92,195,404,178,203,156,151,135,260,359,191,97,447,346,233,209,258,200,324,214,249,340,198,133,394,134,266
GAP,508,547,433,445,521,273,627,428,202,420,339,676,565,481,616,450,530,486,543,402,350,0,138,550,466,406,395,543,594,221,168,469,545,283,403,528,517,488,320,404,306,581,407,458,474,492,413,573,586,216,439,412,462,646,139,638
GRENOBLE,369,371,290,306,366,81,436,239,97,238,193,538,427,317,479,364,307,289,415,263,194,142,0,397,337,267,264,379,451,73,131,330,383,144,252,341,342,347,293,275,175,462,247,309,334,346,294,424,403,187,298,265,295,472,53,446
LA-ROCHELLE,198,347,289,162,124,462,442,349,369,381,417,246,121,227,355,320,339,355,413,369,309,561,395,0,347,210,279,219,237,317,402,549,421,386,291,492,410,105,562,199,169,274,435,77,307,215,296,287,487,453,255,133,305,299,362,447
LE-HAVRE,424,575,143,242,280,393,520,263,312,313,436,452,337,283,415,167,242,295,252,364,254,520,328,339,0,205,206,345,384,272,346,558,327,368,296,428,327,283,489,224,117,457,500,238,259,280,47,361,405,397,488,215,245,448,292,369
LE-MANS,296,445,169,35,157,319,451,223,251,250,350,348,223,152,201,97,192,242,184,291,193,399,254,209,211,0,151,247,175,176,290,495,276,295,214,373,274,75,433,132,55,361,405,111,191,73,151,138,348,346,353,56,190,373,217,309
LILLE,361,498,81,192,233,318,445,203,236,221,334,401,293,217,358,204,27,212,268,302,170,395,263,282,206,149,0,274,326,168,269,481,228,286,240,339,244,232,426,160,58,420,388,191,169,225,157,292,308,326,428,165,162,367,201,306
LIMOGES,180,263,284,244,103,451,159,332,363,368,294,277,136,126,484,320,326,354,392,206,295,572,385,224,335,248,271,0,410,309,392,422,385,313,192,488,401,290,559,132,170,272,298,117,305,344,286,410,479,443,184,174,301,76,341,439
LORIENT,467,599,344,153,329,512,619,413,438,449,543,502,371,316,110,294,372,419,336,459,383,589,464,248,376,178,336,414,0,356,443,651,458,474,379,555,450,106,609,294,218,534,595,284,365,93,324,157,531,494,507,211,354,501,398,527
LYON,333,316,215,210,284,113,322,109,63,132,144,454,340,205,407,256,227,183,321,161,94,214,67,317,262,171,178,307,362,0,82,245,283,103,140,222,242,251,249,201,110,398,204,220,251,247,212,334,275,138,240,181,165,352,29,366
MARSEILLE,305,284,294,330,351,231,448,213,28,257,133,435,334,330,500,318,296,292,390,281,197,177,136,392,344,287,268,403,438,95,0,251,386,78,265,358,345,363,142,277,180,340,195,306,305,369,292,435,424,38,203,290,269,434,58,457
MENDE,450,236,498,501,511,429,215,517,202,452,236,579,425,332,679,544,597,568,618,170,403,501,373,594,535,509,480,400,674,234,260,0,600,201,249,542,555,545,429,415,359,484,304,497,539,578,482,646,595,316,286,428,518,375,224,686
METZ,495,653,271,313,358,436,578,319,354,242,475,532,408,317,473,323,294,171,395,442,182,577,390,393,334,272,225,399,445,284,387,599,0,410,374,136,32,345,551,273,166,528,545,303,144,349,281,418,78,441,559,281,224,504,355,74
MONTPELLIER,206,194,295,343,310,256,387,238,46,266,35,346,245,346,482,369,341,343,451,285,204,248,152,421,351,289,286,331,454,102,78,197,414,0,281,368,379,384,244,290,195,251,86,325,345,358,297,427,434,137,114,307,294,330,72,485
MOULINS,407,426,245,219,278,274,207,266,236,220,322,469,330,63,470,291,297,325,363,57,156,403,247,292,307,223,241,215,401,136,250,234,357,263,0,354,360,263,423,130,145,489,398,200,283,329,255,395,422,317,418,156,274,252,200,390
MULHOUSE,576,646,365,395,446,371,593,311,330,89,419,621,508,412,573,436,383,128,511,444,160,475,347,497,431,362,348,488,541,225,347,576,129,378,361,0,129,436,528,363,260,630,487,400,285,434,382,506,49,415,515,368,170,583,296,233
NANCY,467,619,256,304,343,391,576,275,310,201,431,506,393,325,454,311,275,127,383,418,137,544,365,395,325,259,241,389,432,240,343,555,32,366,350,129,0,346,507,268,160,513,545,301,137,331,272,408,71,397,522,284,180,497,311,97
NANTES,307,456,237,34,200,396,455,277,327,326,429,357,229,184,233,199,267,329,295,323,262,491,337,106,275,74,236,289,109,257,350,528,345,373,246,444,332,0,503,143,125,385,483,155,276,75,227,145,407,401,364,96,264,388,301,366
NICE,469,470,456,464,517,395,614,460,171,422,300,599,498,478,631,484,474,455,556,435,360,345,300,565,562,431,432,548,603,255,143,408,549,235,430,523,508,503,0,430,335,504,352,472,494,507,509,576,589,100,367,455,463,628,217,634
ORLEANS,315,420,181,107,161,321,308,200,251,247,343,340,223,60,362,215,194,247,280,199,192,443,267,213,223,126,156,136,276,206,282,403,267,297,128,361,260,148,443,0,62,347,397,114,195,217,171,288,334,333,331,61,181,241,220,284
PARIS,248,368,65,89,123,215,327,103,156,150,237,286,180,106,241,104,83,133,163,195,96,321,175,167,114,54,58,166,216,115,180,382,161,195,145,257,158,121,333,61,0,300,285,86,86,123,65,189,232,231,308,62,82,259,130,177
PAU,188,217,416,349,182,578,381,497,339,526,238,90,117,406,606,461,490,532,557,513,462,543,466,253,497,361,410,279,506,392,360,514,565,269,472,656,541,379,515,366,305,0,254,227,484,448,428,514,615,411,129,282,464,330,355,624
PERPIGNAN,203,224,411,443,374,360,394,348,160,388,46,384,271,460,587,482,447,486,556,416,328,363,264,457,459,394,389,324,559,205,191,329,527,86,399,494,520,484,368,392,299,277,0,422,450,463,402,532,558,251,111,410,423,327,164,590
POITIERS,167,318,210,104,40,375,321,252,290,292,334,212,100,141,361,208,245,272,301,283,226,463,309,77,259,106,200,122,260,231,323,463,328,336,205,409,299,145,471,113,89,232,398,0,228,212,198,292,376,374,231,46,222,236,276,368
REIMS,405,543,140,232,264,379,488,248,296,284,370,446,325,243,408,246,204,126,320,333,213,491,312,326,256,193,169,293,357,254,307,515,150,328,283,267,134,273,478,188,90,449,418,221,0,272,202,342,210,358,451,206,182,386,262,143
RENNES,381,530,241,120,242,391,519,303,334,335,431,433,308,240,120,186,265,324,207,379,267,482,335,202,278,71,228,332,90,251,345,553,348,376,302,439,350,76,501,228,125,435,488,196,262,0,224,56,428,396,438,144,259,440,295,391
ROUEN,372,509,79,188,228,343,466,209,256,260,365,400,285,231,359,107,186,243,185,303,197,440,274,287,46,151,152,292,328,220,290,500,275,314,244,376,274,229,439,172,65,405,413,186,206,224,0,306,353,341,436,164,193,396,238,316
ST-MALO,450,599,308,192,311,465,590,380,408,407,520,499,377,331,189,186,327,389,203,455,339,556,407,294,343,139,297,401,153,317,411,632,410,469,400,511,429,150,564,293,186,501,574,265,328,51,290,0,503,462,507,224,336,503,359,471
STRASBOURG,540,699,337,383,418,424,653,375,395,142,472,579,469,404,531,384,348,199,456,493,213,540,400,472,402,339,311,466,509,278,400,641,76,431,414,50,70,426,593,347,238,590,554,376,233,408,350,485,0,478,568,361,234,578,361,180
TOULON,357,360,340,388,412,282,498,273,69,306,190,489,388,362,521,368,376,342,440,332,247,237,187,469,443,328,319,456,493,147,37,301,436,128,314,407,395,393,100,319,230,394,245,370,371,397,376,466,473,0,257,350,329,502,112,506
TOULOUSE,60,48,456,378,191,397,197,410,182,417,89,219,121,334,603,450,498,489,524,361,336,395,309,280,468,372,438,187,519,236,203,274,555,112,427,519,525,392,358,327,308,124,109,246,453,454,419,529,572,254,0,304,465,163,207,649
TOURS,235,377,183,54,91,338,340,230,260,260,358,276,151,88,293,163,195,254,248,227,205,424,277,135,213,58,171,174,220,187,297,413,283,311,150,381,283,99,452,61,64,288,406,46,204,144,161,220,359,357,293,0,201,275,235,301
TROYES,400,520,190,219,275,356,482,91,239,213,367,444,331,236,388,254,211,48,324,340,142,443,267,307,256,187,176,303,360,158,272,501,256,307,273,171,264,260,429,187,88,452,428,218,185,258,203,331,241,320,462,205,0,396,202,282
TULLE,209,244,384,353,181,517,139,446,379,468,284,325,162,240,607,434,440,468,506,185,395,614,454,337,448,365,375,82,566,364,400,383,485,309,261,597,512,399,555,234,270,318,294,232,408,451,400,528,588,451,166,282,415,0,416,548
VALENCE,295,277,236,271,315,144,391,152,30,191,112,471,335,262,438,289,268,226,375,215,138,137,56,367,290,215,204,358,392,34,58,250,340,70,197,293,295,312,203,225,131,364,165,270,271,297,276,376,351,114,204,232,208,399,0,411
VERDUN,494,629,289,329,399,469,605,358,383,351,487,557,415,377,491,363,321,201,442,443,277,595,412,428,356,290,286,415,493,346,422,648,75,427,378,276,93,358,596,298,188,546,583,341,143,368,308,443,187,491,551,310,274,531,395,0
